{
  "project_info": {
    "project_number": "324144485498",
    "firebase_url": "https://marvelconsult-ffa47.firebaseio.com",
    "project_id": "marvelconsult-ffa47",
    "storage_bucket": "marvelconsult-ffa47.appspot.com"
  },
  "client": [
    {
      "client_info": {
        "mobilesdk_app_id": "1:324144485498:android:551fbd1bdc07687b0bd7c3",
        "android_client_info": {
          "package_name": "es.rudopracticas.marvelconsult"
        }
      },
      "oauth_client": [
        {
          "client_id": "324144485498-rsng825igetlthkt8j73sf6jm8djrnk4.apps.googleusercontent.com",
          "client_type": 1,
          "android_info": {
            "package_name": "es.rudopracticas.marvelconsult",
            "certificate_hash": "b7e23184c7c567bd3ee6aa73c87f1f32c98946ee"
          }
        },
        {
          "client_id": "324144485498-laa4o86kpbirv6aofospi79n4ehs34t1.apps.googleusercontent.com",
          "client_type": 3
        }
      ],
      "api_key": [
        {
          "current_key": "AIzaSyBCxupbKiJoW-dJ16Qk57x9YpjiKWwc1qc"
        }
      ],
      "services": {
        "appinvite_service": {
          "other_platform_oauth_client": [
            {
              "client_id": "324144485498-laa4o86kpbirv6aofospi79n4ehs34t1.apps.googleusercontent.com",
              "client_type": 3
            }
          ]
        }
      }
    }
  ],
  "configuration_version": "1"
}